…
## taxamap classes

### Filter

Remove singleton taxa, but reassign singletons to supertaxa that pass filter


```r
filter_taxa(ex_taxmap, 1:3)
#> <Taxmap>
#>   3 taxa: 1. Mammalia, 2. Plantae, 3. Felidae
#>   3 edges: NA->1, NA->2, 1->3
#>   2 data sets:
#>     info:
#>       # A tibble: 6 × 4
#>           name n_legs dangerous taxon_id
#>         <fctr>  <dbl>     <lgl>    <chr>
#>       1  tiger      4      TRUE        3
#>       2    cat      4     FALSE        3
#>       3   mole      4     FALSE        1
#>       # ... with 3 more rows
…
### Mutate

Add one or more taxon columns


```r
mutate_obs(ex_taxmap, "info",
           new_col = "Im new",
           newer_col = paste0(new_col, "er!"))
#> <Taxmap>
#>   17 taxa: 1. Mammalia ... 16. lycopersicum, 17. tuberosum
#>   17 edges: NA->1, NA->2, 1->3 ... 9->14, 10->15, 11->16, 11->17
#>   2 data sets:
#>     info:
#>       # A tibble: 6 × 6
#>           name n_legs dangerous taxon_id new_col newer_col
#>         <fctr>  <dbl>     <lgl>    <chr>   <chr>     <chr>
#>       1  tiger      4      TRUE       12  Im new Im newer!
#>       2    cat      4     FALSE       13  Im new Im newer!
#>       3   mole      4     FALSE       14  Im new Im newer!
#>       # ... with 3 more rows
…
### Select 

Select taxon columns


```r
select_obs(ex_taxmap, "info", dangerous)
#> <Taxmap>
#>   17 taxa: 1. Mammalia ... 16. lycopersicum, 17. tuberosum
#>   17 edges: NA->1, NA->2, 1->3 ... 9->14, 10->15, 11->16, 11->17
#>   2 data sets:
#>     info:
#>       # A tibble: 6 × 2
#>         taxon_id dangerous
#>            <chr>     <lgl>
#>       1       12      TRUE
#>       2       13     FALSE
#>       3       14     FALSE
#>       # ... with 3 more rows
…
### Arrange

Sort by taxon name alphabetically


```r
arrange_taxa(ex_taxmap, desc(ex_taxmap$taxon_names()))
#> <Taxmap>
#>   17 taxa: 1. Mammalia ... 16. lycopersicum, 17. tuberosum
#>   17 edges: 9->14, 11->17, 7->12 ... 1->5, 3->8, 1->3, 8->13
#>   2 data sets:
#>     info:
#>       # A tibble: 6 × 4
#>           name n_legs dangerous taxon_id
#>         <fctr>  <dbl>     <lgl>    <chr>
#>       1  tiger      4      TRUE       12
#>       2    cat      4     FALSE       13
#>       3   mole      4     FALSE       14
#>       # ... with 3 more rows
…
